^C:\PROJECTS\TT\WORDS OF SUBTITLES\SOURCE.CPP|C:\PROJECTS\TT\WORDS OF SUBTITLES\WORDHANDLER.CPP
C:\PROJECTS\TT\WORDS OF SUBTITLES\X64\RELEASE\VC142.PDB
C:\PROJECTS\TT\WORDS OF SUBTITLES\X64\RELEASE\WORDHANDLER.OBJ
C:\PROJECTS\TT\WORDS OF SUBTITLES\X64\RELEASE\SOURCE.OBJ
^C:\PROJECTS\TT\WORDS OF SUBTITLES\SOURCE.CPP
C:\PROJECTS\TT\WORDS OF SUBTITLES\X64\RELEASE\VC142.PDB
^C:\PROJECTS\TT\WORDS OF SUBTITLES\WORDHANDLER.CPP
C:\PROJECTS\TT\WORDS OF SUBTITLES\X64\RELEASE\VC142.PDB
